<?xml version="1.0" encoding="UTF-8" standalone="no"?>
<!-- Created with Inkscape (http://www.inkscape.org/) -->

<svg
   width="256"
   height="64.000008"
   viewBox="0 0 256 64.000008"
   version="1.1"
   id="svg1"
   sodipodi:docname="cursor.svg"
   inkscape:version="1.3-dev (a63d44ab8d, 2023-02-03, custom)"
   xmlns:inkscape="http://www.inkscape.org/namespaces/inkscape"
   xmlns:sodipodi="http://sodipodi.sourceforge.net/DTD/sodipodi-0.dtd"
   xmlns="http://www.w3.org/2000/svg"
   xmlns:svg="http://www.w3.org/2000/svg"
   xmlns:rdf="http://www.w3.org/1999/02/22-rdf-syntax-ns#"
   xmlns:cc="http://creativecommons.org/ns#"
   xmlns:dc="http://purl.org/dc/elements/1.1/">
  <title
     id="title1">Cursors</title>
  <sodipodi:namedview
     id="namedview1"
     pagecolor="#8f8f8f"
     bordercolor="#000000"
     borderopacity="0.25"
     inkscape:showpageshadow="2"
     inkscape:pageopacity="0.0"
     inkscape:pagecheckerboard="0"
     inkscape:deskcolor="#d1d1d1"
     inkscape:document-units="px"
     inkscape:zoom="1"
     inkscape:cx="110.5"
     inkscape:cy="79.5"
     inkscape:window-width="1918"
     inkscape:window-height="1059"
     inkscape:window-x="1366"
     inkscape:window-y="19"
     inkscape:window-maximized="1"
     inkscape:current-layer="layer1"
     showgrid="true"
     showguides="true">
    <inkscape:grid
       id="grid11"
       visible="true"
       spacingx="64"
       spacingy="64"
       originx="-2.3071926e-07"
       originy="1.0794536e-05" />
  </sodipodi:namedview>
  <defs
     id="defs1" />
  <g
     inkscape:label="Layer 1"
     inkscape:groupmode="layer"
     id="layer1">
    <g
       id="hand"
       inkscape:label="hand">
      <rect
         style="opacity:1;fill:none;stroke:none;stroke-width:1;stroke-linejoin:round;stop-color:#000000"
         id="rect1"
         width="63"
         height="63"
         x="128.5"
         y="0.50000501" />
      <path
         id="path16"
         style="font-variation-settings:normal;opacity:0.464198;vector-effect:none;fill:#1a1a1a;fill-opacity:1;stroke:none;stroke-width:0.947687;stroke-linecap:butt;stroke-linejoin:round;stroke-miterlimit:4;stroke-dasharray:none;stroke-dashoffset:0;stroke-opacity:1;-inkscape-stroke:none;stop-color:#000000;stop-opacity:1"
         d="m 163.56926,25.061977 c 0.63091,0.638727 -0.0721,1.389117 -0.7601,0.918682 -4.74622,-2.825774 -12.80882,-9.820148 -15.27178,-11.165147 -2.51017,-1.370783 -4.26238,1.762936 -2.66716,3.306427 0.75943,0.734785 8.97755,8.35985 14.02646,11.54546 0.40825,0.510621 0.089,0.944254 -0.50049,0.748382 -6.36829,-3.75265 -14.84426,-10.355277 -17.39344,-11.370686 -2.73403,-1.089053 -4.97646,2.704216 -2.11536,4.90764 2.29448,1.767052 11.73021,9.653635 15.74956,12.657372 0.41551,0.650131 0.37047,1.085039 -0.71584,1.033352 -5.56334,-4.544282 -14.12925,-9.58933 -16.03969,-10.292985 -2.83201,-1.043082 -4.24381,2.285569 -2.6367,3.866961 1.3008,1.279988 5.31213,4.188583 6.6693,5.288641 0.93671,0.75925 5.25284,3.675504 10.12477,7.011327 1.74257,1.311789 3.99627,3.364382 2.75742,5.685357 -0.74579,0.595542 -10.41586,1.174437 -12.06351,3.808342 -1.96507,3.141301 0.34671,3.954309 2.09407,3.851455 1.73041,-0.101856 12.9116,-0.537072 15.42429,-0.02874 2.20825,0.446743 4.52373,0.7618 5.72673,0.776442 1.203,0.01465 2.97396,0.672987 2.97396,0.672987 0,0 1.45444,3.54778 3.09161,3.780039 2.20968,0.313476 7.45541,-3.399091 10.28993,-7.705403 2.83453,-4.306306 9.39616,-11.028319 6.12361,-14.42794 -0.72544,-0.753597 -3.45939,-2.007703 -3.5984,-2.002335 -0.12218,-0.314755 -5.61316,-6.426122 -10.60056,-10.937939 -3.75978,-3.401245 -5.69858,-4.903369 -5.69858,-4.903369 0,0 -4.04574,-3.280774 -7.5724,-5.631673 -2.28305,-1.521895 -4.61683,-3.311182 -6.89887,-4.69986 -2.08029,-1.265915 -4.5358,1.242922 -2.51468,2.96592 2.53442,2.1606 11.99585,10.341293 11.99585,10.341293 z"
         sodipodi:nodetypes="ccssccssccsssccsssscssscscsssc" />
      <path
         id="path1"
         style="opacity:1;fill:#ffffff;stroke:none;stroke-width:0.999998;stroke-linejoin:round;stop-color:#000000"
         d="m 161.60952,20.268452 c 0.63091,0.638727 -0.0721,1.389117 -0.7601,0.918682 -4.74622,-2.825774 -12.80882,-9.820148 -15.27178,-11.165147 -2.51017,-1.3707827 -4.26238,1.762936 -2.66716,3.306427 0.75943,0.734785 8.97755,8.35985 14.02646,11.54546 0.40825,0.510621 0.089,0.944254 -0.50049,0.748382 -6.36829,-3.75265 -14.84426,-10.355277 -17.39344,-11.370686 -2.73403,-1.089053 -4.97646,2.704216 -2.11536,4.90764 2.29448,1.767052 11.73021,9.653635 15.74956,12.657372 0.41551,0.650131 0.37047,1.085039 -0.71584,1.033352 -5.56334,-4.544282 -14.12925,-9.58933 -16.03969,-10.292985 -2.83201,-1.043082 -4.24381,2.285569 -2.6367,3.866961 1.3008,1.279988 5.31213,4.188583 6.6693,5.288641 0.93671,0.75925 5.25284,3.675504 10.12477,7.011327 1.74257,1.311789 3.99627,3.364382 2.75742,5.685357 -0.74579,0.595542 -10.41586,1.174437 -12.06351,3.808342 -1.96507,3.141301 0.34671,3.954309 2.09407,3.851455 1.73041,-0.101856 12.9116,-0.537072 15.42429,-0.02874 2.20825,0.446743 4.52373,0.7618 5.72673,0.776442 1.203,0.01465 2.97396,0.672987 2.97396,0.672987 0,0 1.45444,3.54778 3.09161,3.780039 2.20968,0.313476 7.45541,-3.399091 10.28993,-7.705403 2.83453,-4.306306 9.39616,-11.028319 6.12361,-14.42794 -0.72544,-0.753597 -3.45939,-2.007703 -3.5984,-2.002335 -0.12218,-0.314755 -5.61316,-6.426122 -10.60056,-10.937939 -3.75978,-3.401245 -5.69858,-4.903369 -5.69858,-4.903369 0,0 -4.04574,-3.280774 -7.5724,-5.631673 -2.28305,-1.521895 -4.61683,-3.3111823 -6.89887,-4.6998604 -2.08029,-1.2659146 -4.5358,1.2429223 -2.51468,2.9659206 2.53442,2.1605998 11.99585,10.3412928 11.99585,10.3412928 z"
         sodipodi:nodetypes="ccssccssccsssccsssscssscscsssc" />
    </g>
    <g
       id="eye"
       inkscape:label="eye">
      <path
         style="color:#000000;font-variation-settings:normal;opacity:0.464198;vector-effect:none;fill:#1a1a1a;fill-opacity:1;stroke-width:0.947687;stroke-linecap:butt;stroke-linejoin:round;stroke-miterlimit:4;stroke-dasharray:none;stroke-dashoffset:0;stroke-opacity:1;-inkscape-stroke:none;stop-color:#000000;stop-opacity:1"
         d="m 97.596802,20.192169 c -6.526535,-0.04397 -13.385513,1.026757 -19.147728,4.091797 -4.605003,2.449495 -10.15716,6.650125 -11.264381,10.861328 0.994511,4.63272 6.658969,8.413591 11.264381,10.863281 5.762107,3.064954 12.621329,4.133798 19.147728,4.089844 6.139788,-0.04135 12.487588,-1.305708 17.959998,-4.089844 4.9094,-2.497697 10.97767,-6.244556 12.45211,-10.863281 -1.80148,-4.530046 -7.54311,-8.36379 -12.45211,-10.861328 -5.47252,-2.784241 -11.82006,-4.050428 -17.959998,-4.091797 z m 0.05047,3.625158 c 5.186628,0.04864 10.472928,1.302848 15.152548,3.539942 3.80518,1.819065 9.19047,5.253445 9.9773,7.781302 -0.90635,2.328677 -6.1745,6.072068 -10.01714,7.887535 -4.66723,2.20505 -9.96495,3.290623 -15.126802,3.31478 -5.622828,0.02631 -11.461911,-0.981339 -16.510759,-3.456421 -3.576562,-1.753328 -8.229789,-5.179273 -9.099161,-7.745894 0.774697,-2.156074 5.648962,-6.044878 9.283423,-7.825565 5.002009,-2.45071 10.770731,-3.54791 16.340591,-3.495679 z"
         id="path14"
         sodipodi:nodetypes="aacaaacaaaacaaacaa" />
      <circle
         style="font-variation-settings:normal;opacity:0.464198;vector-effect:none;fill:#1a1a1a;fill-opacity:1;stroke:none;stroke-width:0.947687;stroke-linecap:butt;stroke-linejoin:round;stroke-miterlimit:4;stroke-dasharray:none;stroke-dashoffset:0;stroke-opacity:1;-inkscape-stroke:none;stop-color:#000000;stop-opacity:1"
         id="circle14"
         cx="97.597"
         cy="35.145641"
         r="10.914985" />
      <rect
         style="opacity:0.464198;fill:none;stroke:none;stroke-width:2.00647;stroke-linejoin:round;stop-color:#000000"
         id="rect11"
         width="64"
         height="64"
         x="64"
         y="2.6356915e-06" />
      <path
         style="color:#000000;fill:#ffffff;stroke-linejoin:round;-inkscape-stroke:none"
         d="m 96.052218,16.779667 c -6.562651,-0.05094 -13.425516,1.2402 -19.199944,4.359007 -4.589333,2.478729 -10.15716,6.650125 -11.264381,10.861328 0.994511,4.63272 6.658969,8.413591 11.264381,10.863281 5.762107,3.064954 12.621329,4.133798 19.147728,4.089844 6.139788,-0.04135 12.487588,-1.305708 17.959998,-4.089844 4.9094,-2.497697 10.97767,-6.244556 12.45211,-10.863281 -1.80148,-4.530046 -7.56169,-8.327616 -12.45211,-10.861328 -5.45491,-2.826171 -11.76441,-4.311325 -17.907782,-4.359007 z m -0.0017,3.892368 c 5.186632,0.04864 10.472942,1.302848 15.152562,3.539942 3.80518,1.819065 9.19047,5.253445 9.9773,7.781302 -0.90635,2.328677 -6.1745,6.072068 -10.01714,7.887535 -4.66723,2.20505 -9.96495,3.290623 -15.126816,3.31478 -5.622828,0.02631 -11.461911,-0.981339 -16.510759,-3.456421 -3.576562,-1.753328 -8.229789,-5.179273 -9.099161,-7.745894 0.774697,-2.156074 5.648962,-6.044878 9.283423,-7.825565 5.002009,-2.45071 10.770731,-3.54791 16.340591,-3.495679 z"
         id="path12"
         sodipodi:nodetypes="aacaaacaaaacaaacaa" />
      <circle
         style="fill:#ffffff;fill-opacity:1;stroke:none;stroke-width:4.24529;stroke-linejoin:round;stroke-dasharray:none;stop-color:#000000"
         id="path13"
         cx="96.000198"
         cy="32.000351"
         r="10.914985" />
    </g>
    <g
       id="crosshairs"
       inkscape:label="crosshairs"
       transform="matrix(1.0260688,0,0,1.010383,-7.6227217,-8.4109357)">
      <path
         id="path8"
         style="opacity:0.464198;fill:#1a1a1a;stroke-width:0.930751;stroke-linejoin:round;stop-color:#000000"
         d="m 39.803039,11.666818 c 3.087719,0 6.177687,2.974979 5.5735,6.556905 l -2.601008,15.420082 c -0.322228,1.910334 -1.325731,3.496967 -2.972492,3.496967 -1.646761,0 -2.650264,-1.586633 -2.972492,-3.496967 L 34.22954,18.223723 c -0.604188,-3.581926 2.48578,-6.556905 5.573499,-6.556905 z"
         sodipodi:nodetypes="sssssss" />
      <path
         id="path9"
         style="opacity:0.464198;fill:#1a1a1a;stroke-width:0.930751;stroke-linejoin:round;stop-color:#000000"
         d="m 39.803039,71.666819 c 3.087719,0 6.177687,-2.974981 5.5735,-6.556905 L 42.775531,49.689834 C 42.453303,47.7795 41.4498,46.192865 39.803039,46.192865 c -1.646761,0 -2.650264,1.586635 -2.972492,3.496969 l -2.601007,15.42008 c -0.604188,3.581924 2.48578,6.556905 5.573499,6.556905 z"
         sodipodi:nodetypes="sssssss" />
      <path
         id="rect2"
         style="fill:#f9f9f9;stroke-width:0.930751;stroke-linejoin:round;stop-color:#000000"
         d="m 37.429056,8.3244997 c 3.087719,0 6.177687,2.9749783 5.5735,6.5569043 l -2.601008,15.420082 c -0.322228,1.910334 -1.325731,3.496967 -2.972492,3.496967 -1.646761,0 -2.650264,-1.586633 -2.972492,-3.496967 L 31.855557,14.881404 c -0.604188,-3.581926 2.48578,-6.5569043 5.573499,-6.5569043 z"
         sodipodi:nodetypes="sssssss" />
      <path
         id="path10"
         style="opacity:0.464198;fill:#1a1a1a;stroke-width:0.930751;stroke-linejoin:round;stop-color:#000000"
         d="m 69.803038,41.666818 c 0,3.087719 -2.974978,6.177687 -6.556904,5.5735 L 47.826053,44.63931 c -1.910335,-0.322228 -3.496968,-1.325731 -3.496968,-2.972492 0,-1.646761 1.586633,-2.650264 3.496968,-2.972492 l 15.420081,-2.601007 c 3.581926,-0.604188 6.556904,2.48578 6.556904,5.573499 z"
         sodipodi:nodetypes="sssssss" />
      <path
         id="path2"
         style="fill:#f9f9f9;stroke-width:0.930751;stroke-linejoin:round;stop-color:#000000"
         d="m 37.429056,68.3245 c 3.087719,0 6.177687,-2.974981 5.5735,-6.556905 l -2.601008,-15.42008 c -0.322228,-1.910334 -1.325731,-3.496969 -2.972492,-3.496969 -1.646761,0 -2.650264,1.586635 -2.972492,3.496969 l -2.601007,15.42008 c -0.604188,3.581924 2.48578,6.556905 5.573499,6.556905 z"
         sodipodi:nodetypes="sssssss" />
      <path
         id="path11"
         style="opacity:0.464198;fill:#1a1a1a;stroke-width:0.930751;stroke-linejoin:round;stop-color:#000000"
         d="m 9.8030383,41.666818 c 0,3.087719 2.9749807,6.177687 6.5569047,5.5735 l 15.42008,-2.601008 c 1.910334,-0.322228 3.496969,-1.325731 3.496969,-2.972492 0,-1.646761 -1.586635,-2.650264 -3.496969,-2.972492 l -15.42008,-2.601007 c -3.581924,-0.604188 -6.5569047,2.48578 -6.5569047,5.573499 z"
         sodipodi:nodetypes="sssssss" />
      <path
         id="path3"
         style="fill:#f9f9f9;stroke-width:0.930751;stroke-linejoin:round;stop-color:#000000"
         d="m 67.429055,38.324499 c 0,3.087719 -2.974978,6.177687 -6.556904,5.5735 L 45.45207,41.296991 c -1.910335,-0.322228 -3.496968,-1.325731 -3.496968,-2.972492 0,-1.646761 1.586633,-2.650264 3.496968,-2.972492 L 60.872151,32.751 c 3.581926,-0.604188 6.556904,2.48578 6.556904,5.573499 z"
         sodipodi:nodetypes="sssssss" />
      <path
         id="path4"
         style="fill:#f9f9f9;stroke-width:0.930751;stroke-linejoin:round;stop-color:#000000"
         d="m 7.4290552,38.324499 c 0,3.087719 2.9749808,6.177687 6.5569048,5.5735 l 15.42008,-2.601008 c 1.910334,-0.322228 3.496969,-1.325731 3.496969,-2.972492 0,-1.646761 -1.586635,-2.650264 -3.496969,-2.972492 L 13.98596,32.751 c -3.581924,-0.604188 -6.5569048,2.48578 -6.5569048,5.573499 z"
         sodipodi:nodetypes="sssssss" />
    </g>
    <g
       id="talk"
       inkscape:label="talk">
      <rect
         style="fill:none;fill-opacity:1;stroke-width:3;stroke-linejoin:round;stop-color:#000000"
         id="rect5"
         width="64"
         height="64"
         x="192"
         y="7.704316e-06" />
      <path
         id="path6"
         style="font-variation-settings:normal;opacity:0.464198;vector-effect:none;fill:#1a1a1a;fill-opacity:1;stroke:none;stroke-width:0.947687;stroke-linecap:butt;stroke-linejoin:round;stroke-miterlimit:4;stroke-dasharray:none;stroke-dashoffset:0;stroke-opacity:1;-inkscape-stroke:none;stop-color:#000000;stop-opacity:1"
         d="m 227.6451,15.47748 a 26.762205,19.313444 0 0 0 -26.76172,19.3125 26.762205,19.313444 0 0 0 10.33789,15.238281 c -0.51553,1.133892 -1.20545,2.202809 -2.13281,3.027344 -3.83926,3.413615 -9.38282,5.210937 -9.38282,5.210937 0,0 15.45699,0.362454 21.25782,-3.21875 0.59732,-0.368764 1.16508,-0.818247 1.70507,-1.322265 a 26.762205,19.313444 0 0 0 4.97657,0.378906 26.762205,19.313444 0 0 0 26.76367,-19.314453 26.762205,19.313444 0 0 0 -26.76367,-19.3125 z" />
      <path
         id="path5"
         style="fill:#ffffff;stroke-width:3;stroke-linejoin:round;stop-color:#000000"
         d="m 224.58789,10.600341 a 26.762205,19.313444 0 0 0 -26.76172,19.3125 26.762205,19.313444 0 0 0 10.33789,15.238281 c -0.51553,1.133892 -1.20545,2.202809 -2.13281,3.027344 -3.83926,3.413615 -9.38282,5.210937 -9.38282,5.210937 0,0 15.45699,0.362454 21.25782,-3.21875 0.59732,-0.368764 1.16508,-0.818247 1.70507,-1.322265 a 26.762205,19.313444 0 0 0 4.97657,0.378906 26.762205,19.313444 0 0 0 26.76367,-19.314453 26.762205,19.313444 0 0 0 -26.76367,-19.3125 z" />
    </g>
  </g>
  <metadata
     id="metadata1">
    <rdf:RDF>
      <cc:Work
         rdf:about="">
        <dc:title>Cursors</dc:title>
        <dc:date>2023-02-02</dc:date>
        <dc:creator>
          <cc:Agent>
            <dc:title>jordi fita mas</dc:title>
          </cc:Agent>
        </dc:creator>
        <cc:license
           rdf:resource="http://creativecommons.org/licenses/by-sa/4.0/" />
      </cc:Work>
      <cc:License
         rdf:about="http://creativecommons.org/licenses/by-sa/4.0/">
        <cc:permits
           rdf:resource="http://creativecommons.org/ns#Reproduction" />
        <cc:permits
           rdf:resource="http://creativecommons.org/ns#Distribution" />
        <cc:requires
           rdf:resource="http://creativecommons.org/ns#Notice" />
        <cc:requires
           rdf:resource="http://creativecommons.org/ns#Attribution" />
        <cc:permits
           rdf:resource="http://creativecommons.org/ns#DerivativeWorks" />
        <cc:requires
           rdf:resource="http://creativecommons.org/ns#ShareAlike" />
      </cc:License>
    </rdf:RDF>
  </metadata>
</svg>
